^D:\DOCUMENTS\PROGRAMI\C++\NRPTESTRESEN\NRPTESTRESEN\DEBUG\MAIN.OBJ|D:\DOCUMENTS\PROGRAMI\C++\NRPTESTRESEN\NRPTESTRESEN\DEBUG\SMUCAR.OBJ
D:\DOCUMENTS\PROGRAMI\C++\NRPTESTRESEN\DEBUG\NRPTESTRESEN.EXE
D:\DOCUMENTS\PROGRAMI\C++\NRPTESTRESEN\DEBUG\NRPTESTRESEN.ILK
D:\DOCUMENTS\PROGRAMI\C++\NRPTESTRESEN\DEBUG\NRPTESTRESEN.PDB
